500
0
1
eji-a 6
1
2
a-b 7
ejj-b 8
2
1
b-c 8
3
2
c-d 7
ejj-d 8
4
1
d-e 8
5
2
e-f 8
ejj-f 7
6
1
f-g 6
7
2
g-h 7
ejj-h 7
8
1
h-i 7
9
2
i-j 6
ejj-j 2
10
1
j-ba 6
11
2
ba-bb 5
ejj-bb 4
12
1
bb-bc 5
13
2
bc-bd 4
ejj-bd 6
14
1
bd-be 4
15
2
be-bf 4
ejj-bf 4
16
1
bf-bg 4
17
2
bg-bh 4
ejj-bh 8
18
1
bh-bi 5
19
2
bi-bj 7
ejj-bj 6
20
1
bj-ca 6
21
2
ca-cb 6
ejj-cb 9
22
1
cb-cc 7
23
2
cc-cd 6
ejj-cd 7
24
1
cd-ce 6
25
2
ce-cf 4
ejj-cf 6
26
1
cf-cg 5
27
2
cg-ch 5
ejj-ch 5
28
1
ch-ci 5
29
2
ci-cj 4
ejj-cj 6
30
1
cj-da 5
31
2
da-db 5
ejj-db 5
32
1
db-dc 5
33
2
dc-dd 4
ejj-dd 6
34
1
dd-de 4
35
2
de-df 4
ejj-df 7
36
1
df-dg 5
37
2
dg-dh 5
ejj-dh 7
38
1
dh-di 6
39
2
di-dj 4
ejj-dj 5
40
1
dj-ea 4
41
2
ea-eb 4
ejj-eb 7
42
1
eb-ec 5
43
2
ec-ed 5
ejj-ed 3
44
1
ed-ee 4
45
2
ee-ef 5
ejj-ef 7
46
1
ef-eg 6
47
2
eg-eh 5
ejj-eh 6
48
1
eh-ei 5
49
2
ei-ej 6
ejj-ej 8
50
1
ej-fa 6
51
2
fa-fb 6
ejj-fb 8
52
1
fb-fc 6
53
1
fc-fd 6
54
1
fd-fe 6
55
2
fe-ff 7
ejj-ff 6
56
1
ff-fg 7
57
2
fg-fh 6
ejj-fh 8
58
1
fh-fi 7
59
2
fi-fj 7
ejj-fj 8
60
1
fj-ga 7
61
2
ga-gb 7
ejj-gb 7
62
1
gb-gc 7
63
2
gc-gd 7
ejj-gd 6
64
1
gd-ge 6
65
2
ge-gf 6
ejj-gf 6
66
1
gf-gg 6
67
2
gg-gh 6
ejj-gh 5
68
1
gh-gi 5
69
2
gi-gj 6
ejj-gj 5
70
1
gj-ha 6
71
2
ha-hb 5
ejj-hb 6
72
1
hb-hc 6
73
2
hc-hd 6
ejj-hd 7
74
1
hd-he 6
75
2
he-hf 5
ejj-hf 6
76
1
hf-hg 5
77
2
hg-hh 5
ejj-hh 7
78
1
hh-hi 7
79
2
hi-hj 7
ejj-hj 5
80
1
hj-ia 7
81
2
ia-ib 5
ejj-ib 8
82
1
ib-ic 6
83
2
ic-id 7
ejj-id 6
84
1
id-ie 6
85
2
ie-if 6
ejj-if 7
86
1
if-ig 7
87
2
ig-ih 6
ejj-ih 8
88
1
ih-ii 7
89
2
ii-ij 7
ejj-ij 7
90
1
ij-ja 7
91
2
ja-jb 6
ejj-jb 7
92
1
jb-jc 7
93
2
jc-jd 7
ejj-jd 8
94
1
jd-je 7
95
2
je-jf 7
ejj-jf 6
96
1
jf-jg 7
97
2
jg-jh 6
ejj-jh 7
98
1
jh-ji 6
99
2
ji-jj 6
ejj-jj 3
100
1
jj-baa 5
101
2
baa-bab 5
ejj-bab 4
102
1
bab-bac 4
103
2
bac-bad 4
ejj-bad 6
104
1
bad-bae 4
105
2
bae-baf 5
ejj-baf 6
106
1
baf-bag 6
107
2
bag-bah 6
ejj-bah 8
108
1
bah-bai 7
109
2
bai-baj 7
ejj-baj 7
110
1
baj-bba 7
111
2
bba-bbb 7
ejj-bbb 6
112
1
bbb-bbc 6
113
2
bbc-bbd 6
ejj-bbd 6
114
1
bbd-bbe 6
115
2
bbe-bbf 6
ejj-bbf 3
116
1
bbf-bbg 5
117
2
bbg-bbh 4
ejj-bbh 3
118
1
bbh-bbi 3
119
2
bbi-bbj 3
ejj-bbj 7
120
1
bbj-bca 5
121
2
bca-bcb 3
ejj-bcb 7
122
1
bcb-bcc 6
123
2
bcc-bcd 4
ejj-bcd 6
124
1
bcd-bce 5
125
2
bce-bcf 5
ejj-bcf 9
126
1
bcf-bcg 6
127
2
bcg-bch 6
ejj-bch 9
128
1
bch-bci 6
129
2
bci-bcj 7
ejj-bcj 6
130
1
bcj-bda 6
131
2
bda-bdb 5
ejj-bdb 3
132
1
bdb-bdc 4
133
2
bdc-bdd 4
ejj-bdd 6
134
1
bdd-bde 5
135
2
bde-bdf 4
ejj-bdf 7
136
1
bdf-bdg 4
137
2
bdg-bdh 5
ejj-bdh 7
138
1
bdh-bdi 4
139
2
bdi-bdj 5
ejj-bdj 6
140
1
bdj-bea 6
141
2
bea-beb 5
ejj-beb 7
142
1
beb-bec 6
143
2
bec-bed 6
ejj-bed 6
144
1
bed-bee 5
145
2
bee-bef 4
ejj-bef 5
146
1
bef-beg 5
147
2
beg-beh 4
ejj-beh 4
148
1
beh-bei 5
149
2
bei-bej 5
ejj-bej 7
150
1
bej-bfa 6
151
2
bfa-bfb 6
ejj-bfb 9
152
1
bfb-bfc 6
153
2
bfc-bfd 6
ejj-bfd 6
154
1
bfd-bfe 6
155
2
bfe-bff 6
ejj-bff 6
156
1
bff-bfg 7
157
2
bfg-bfh 7
ejj-bfh 7
158
1
bfh-bfi 7
159
2
bfi-bfj 6
ejj-bfj 7
160
1
bfj-bga 7
161
1
bga-bgb 6
162
1
bgb-bgc 6
163
2
bgc-bgd 6
ejj-bgd 7
164
1
bgd-bge 7
165
2
bge-bgf 5
ejj-bgf 6
166
1
bgf-bgg 6
167
2
bgg-bgh 6
ejj-bgh 8
168
1
bgh-bgi 7
169
2
bgi-bgj 6
ejj-bgj 6
170
1
bgj-bha 6
171
2
bha-bhb 7
ejj-bhb 8
172
1
bhb-bhc 7
173
2
bhc-bhd 7
ejj-bhd 6
174
1
bhd-bhe 7
175
2
bhe-bhf 7
ejj-bhf 8
176
1
bhf-bhg 7
177
2
bhg-bhh 8
ejj-bhh 5
178
1
bhh-bhi 6
179
2
bhi-bhj 6
ejj-bhj 7
180
1
bhj-bia 7
181
2
bia-bib 6
ejj-bib 6
182
1
bib-bic 6
183
2
bic-bid 5
ejj-bid 5
184
1
bid-bie 6
185
2
bie-bif 5
ejj-bif 7
186
1
bif-big 6
187
2
big-bih 6
ejj-bih 4
188
1
bih-bii 6
189
2
bii-bij 5
ejj-bij 6
190
1
bij-bja 5
191
2
bja-bjb 5
ejj-bjb 6
192
1
bjb-bjc 5
193
2
bjc-bjd 5
ejj-bjd 6
194
1
bjd-bje 6
195
2
bje-bjf 5
ejj-bjf 8
196
1
bjf-bjg 6
197
2
bjg-bjh 6
ejj-bjh 7
198
1
bjh-bji 6
199
2
bji-bjj 6
ejj-bjj 8
200
1
bjj-caa 7
201
2
caa-cab 7
ejj-cab 3
202
1
cab-cac 6
203
2
cac-cad 7
ejj-cad 6
204
1
cad-cae 6
205
2
cae-caf 5
ejj-caf 6
206
1
caf-cag 6
207
2
cag-cah 6
ejj-cah 9
208
1
cah-cai 6
209
2
cai-caj 6
ejj-caj 8
210
1
caj-cba 7
211
2
cba-cbb 7
ejj-cbb 9
212
1
cbb-cbc 7
213
2
cbc-cbd 8
ejj-cbd 8
214
1
cbd-cbe 8
215
2
cbe-cbf 8
ejj-cbf 6
216
1
cbf-cbg 7
217
2
cbg-cbh 7
ejj-cbh 5
218
1
cbh-cbi 6
219
2
cbi-cbj 6
ejj-cbj 4
220
1
cbj-cca 5
221
2
cca-ccb 5
ejj-ccb 5
222
1
ccb-ccc 4
223
2
ccc-ccd 5
ejj-ccd 3
224
1
ccd-cce 4
225
2
cce-ccf 4
ejj-ccf 5
226
1
ccf-ccg 4
227
2
ccg-cch 4
ejj-cch 4
228
1
cch-cci 4
229
2
cci-ccj 3
ejj-ccj 7
230
1
ccj-cda 5
231
2
cda-cdb 5
ejj-cdb 7
232
1
cdb-cdc 5
233
2
cdc-cdd 5
ejj-cdd 5
234
1
cdd-cde 4
235
2
cde-cdf 4
ejj-cdf 5
236
1
cdf-cdg 5
237
2
cdg-cdh 5
ejj-cdh 8
238
1
cdh-cdi 6
239
2
cdi-cdj 5
ejj-cdj 7
240
1
cdj-cea 6
241
2
cea-ceb 6
ejj-ceb 8
242
1
ceb-cec 7
243
2
cec-ced 7
ejj-ced 8
244
1
ced-cee 7
245
2
cee-cef 8
ejj-cef 6
246
1
cef-ceg 7
247
2
ceg-ceh 6
ejj-ceh 7
248
1
ceh-cei 7
249
1
cei-cej 6
250
1
cej-cfa 6
251
2
cfa-cfb 6
ejj-cfb 4
252
1
cfb-cfc 6
253
2
cfc-cfd 5
ejj-cfd 6
254
1
cfd-cfe 5
255
2
cfe-cff 5
ejj-cff 4
256
1
cff-cfg 5
257
2
cfg-cfh 4
ejj-cfh 6
258
1
cfh-cfi 5
259
2
cfi-cfj 4
ejj-cfj 4
260
1
cfj-cga 4
261
2
cga-cgb 4
ejj-cgb 4
262
1
cgb-cgc 4
263
2
cgc-cgd 4
ejj-cgd 5
264
1
cgd-cge 4
265
2
cge-cgf 4
ejj-cgf 8
266
1
cgf-cgg 4
267
2
cgg-cgh 3
ejj-cgh 6
268
1
cgh-cgi 2
269
1
cgi-cgj 3
270
1
cgj-cha 5
271
2
cha-chb 8
ejj-chb 6
272
1
chb-chc 6
273
2
chc-chd 6
ejj-chd 4
274
1
chd-che 5
275
2
che-chf 6
ejj-chf 6
276
1
chf-chg 6
277
2
chg-chh 5
ejj-chh 3
278
1
chh-chi 5
279
2
chi-chj 4
ejj-chj 4
280
1
chj-cia 4
281
2
cia-cib 4
ejj-cib 8
282
1
cib-cic 5
283
2
cic-cid 5
ejj-cid 7
284
1
cid-cie 4
285
2
cie-cif 4
ejj-cif 6
286
1
cif-cig 5
287
2
cig-cih 5
ejj-cih 4
288
1
cih-cii 5
289
1
cii-cij 4
290
1
cij-cja 4
291
2
cja-cjb 3
ejj-cjb 4
292
1
cjb-cjc 4
293
2
cjc-cjd 5
ejj-cjd 7
294
1
cjd-cje 5
295
2
cje-cjf 5
ejj-cjf 5
296
1
cjf-cjg 5
297
2
cjg-cjh 5
ejj-cjh 6
298
1
cjh-cji 5
299
2
cji-cjj 6
ejj-cjj 5
300
1
cjj-daa 6
301
2
daa-dab 6
ejj-dab 1
302
1
dab-dac 6
303
2
dac-dad 6
ejj-dad 9
304
1
dad-dae 7
305
2
dae-daf 7
ejj-daf 7
306
1
daf-dag 7
307
2
dag-dah 7
ejj-dah 9
308
1
dah-dai 8
309
2
dai-daj 8
ejj-daj 7
310
1
daj-dba 8
311
2
dba-dbb 8
ejj-dbb 7
312
1
dbb-dbc 7
313
2
dbc-dbd 7
ejj-dbd 7
314
1
dbd-dbe 7
315
2
dbe-dbf 6
ejj-dbf 7
316
1
dbf-dbg 7
317
2
dbg-dbh 6
ejj-dbh 4
318
1
dbh-dbi 5
319
2
dbi-dbj 5
ejj-dbj 6
320
1
dbj-dca 6
321
2
dca-dcb 6
ejj-dcb 6
322
1
dcb-dcc 6
323
2
dcc-dcd 6
ejj-dcd 6
324
1
dcd-dce 6
325
2
dce-dcf 5
ejj-dcf 7
326
1
dcf-dcg 6
327
2
dcg-dch 6
ejj-dch 6
328
1
dch-dci 5
329
2
dci-dcj 5
ejj-dcj 8
330
1
dcj-dda 6
331
2
dda-ddb 5
ejj-ddb 8
332
1
ddb-ddc 6
333
2
ddc-ddd 6
ejj-ddd 6
334
1
ddd-dde 5
335
2
dde-ddf 6
ejj-ddf 8
336
1
ddf-ddg 6
337
2
ddg-ddh 7
ejj-ddh 3
338
1
ddh-ddi 7
339
2
ddi-ddj 6
ejj-ddj 7
340
1
ddj-dea 7
341
2
dea-deb 5
ejj-deb 8
342
1
deb-dec 7
343
2
dec-ded 7
ejj-ded 5
344
1
ded-dee 6
345
2
dee-def 5
ejj-def 7
346
1
def-deg 6
347
2
deg-deh 5
ejj-deh 8
348
1
deh-dei 5
349
2
dei-dej 5
ejj-dej 7
350
1
dej-dfa 4
351
1
dfa-dfb 5
352
1
dfb-dfc 5
353
2
dfc-dfd 6
ejj-dfd 9
354
1
dfd-dfe 6
355
2
dfe-dff 5
ejj-dff 5
356
1
dff-dfg 5
357
2
dfg-dfh 7
ejj-dfh 6
358
1
dfh-dfi 7
359
2
dfi-dfj 6
ejj-dfj 6
360
1
dfj-dga 6
361
2
dga-dgb 5
ejj-dgb 6
362
1
dgb-dgc 5
363
2
dgc-dgd 5
ejj-dgd 4
364
1
dgd-dge 5
365
2
dge-dgf 4
ejj-dgf 5
366
1
dgf-dgg 4
367
2
dgg-dgh 5
ejj-dgh 7
368
1
dgh-dgi 5
369
2
dgi-dgj 5
ejj-dgj 6
370
1
dgj-dha 6
371
2
dha-dhb 6
ejj-dhb 6
372
1
dhb-dhc 5
373
2
dhc-dhd 6
ejj-dhd 7
374
1
dhd-dhe 6
375
2
dhe-dhf 6
ejj-dhf 6
376
1
dhf-dhg 6
377
2
dhg-dhh 6
ejj-dhh 5
378
1
dhh-dhi 5
379
2
dhi-dhj 6
ejj-dhj 7
380
1
dhj-dia 5
381
2
dia-dib 6
ejj-dib 5
382
1
dib-dic 5
383
2
dic-did 6
ejj-did 7
384
1
did-die 6
385
2
die-dif 7
ejj-dif 5
386
1
dif-dig 6
387
2
dig-dih 6
ejj-dih 6
388
1
dih-dii 6
389
2
dii-dij 6
ejj-dij 7
390
1
dij-dja 7
391
2
dja-djb 7
ejj-djb 8
392
1
djb-djc 7
393
2
djc-djd 7
ejj-djd 8
394
1
djd-dje 7
395
1
dje-djf 7
396
1
djf-djg 7
397
2
djg-djh 6
ejj-djh 6
398
1
djh-dji 6
399
2
dji-djj 5
ejj-djj 5
400
1
djj-eaa 5
401
2
eaa-eab 5
ejj-eab 6
402
1
eab-eac 5
403
2
eac-ead 4
ejj-ead 5
404
1
ead-eae 4
405
2
eae-eaf 4
ejj-eaf 7
406
1
eaf-eag 5
407
2
eag-eah 5
ejj-eah 6
408
1
eah-eai 5
409
2
eai-eaj 4
ejj-eaj 5
410
1
eaj-eba 5
411
2
eba-ebb 4
ejj-ebb 4
412
1
ebb-ebc 5
413
2
ebc-ebd 5
ejj-ebd 6
414
1
ebd-ebe 5
415
2
ebe-ebf 4
ejj-ebf 6
416
1
ebf-ebg 5
417
2
ebg-ebh 5
ejj-ebh 7
418
1
ebh-ebi 6
419
2
ebi-ebj 5
ejj-ebj 6
420
1
ebj-eca 5
421
2
eca-ecb 5
ejj-ecb 6
422
1
ecb-ecc 6
423
2
ecc-ecd 5
ejj-ecd 6
424
1
ecd-ece 6
425
2
ece-ecf 5
ejj-ecf 5
426
1
ecf-ecg 6
427
2
ecg-ech 6
ejj-ech 5
428
1
ech-eci 5
429
2
eci-ecj 6
ejj-ecj 6
430
1
ecj-eda 5
431
2
eda-edb 5
ejj-edb 5
432
1
edb-edc 5
433
2
edc-edd 5
ejj-edd 6
434
1
edd-ede 5
435
2
ede-edf 5
ejj-edf 5
436
1
edf-edg 4
437
2
edg-edh 5
ejj-edh 7
438
1
edh-edi 6
439
2
edi-edj 6
ejj-edj 6
440
1
edj-eea 5
441
2
eea-eeb 5
ejj-eeb 6
442
1
eeb-eec 6
443
2
eec-eed 6
ejj-eed 5
444
1
eed-eee 6
445
2
eee-eef 6
ejj-eef 6
446
1
eef-eeg 6
447
2
eeg-eeh 6
ejj-eeh 6
448
1
eeh-eei 6
449
1
eei-eej 7
450
1
eej-efa 8
451
2
efa-efb 6
ejj-efb 8
452
1
efb-efc 6
453
2
efc-efd 7
ejj-efd 8
454
1
efd-efe 7
455
2
efe-eff 7
ejj-eff 5
456
1
eff-efg 6
457
2
efg-efh 6
ejj-efh 6
458
1
efh-efi 6
459
2
efi-efj 6
ejj-efj 4
460
1
efj-ega 5
461
2
ega-egb 5
ejj-egb 6
462
1
egb-egc 4
463
2
egc-egd 3
ejj-egd 8
464
1
egd-ege 4
465
2
ege-egf 4
ejj-egf 5
466
1
egf-egg 5
467
2
egg-egh 4
ejj-egh 6
468
1
egh-egi 6
469
2
egi-egj 5
ejj-egj 7
470
1
egj-eha 4
471
2
eha-ehb 5
ejj-ehb 5
472
1
ehb-ehc 5
473
2
ehc-ehd 5
ejj-ehd 7
474
1
ehd-ehe 5
475
2
ehe-ehf 6
ejj-ehf 8
476
1
ehf-ehg 6
477
2
ehg-ehh 7
ejj-ehh 7
478
1
ehh-ehi 7
479
2
ehi-ehj 8
ejj-ehj 6
480
1
ehj-eia 7
481
2
eia-eib 7
ejj-eib 9
482
1
eib-eic 8
483
2
eic-eid 8
ejj-eid 3
484
1
eid-eie 6
485
2
eie-eif 4
ejj-eif 7
486
1
eif-eig 4
487
1
eig-eih 5
488
1
eih-eii 5
489
2
eii-eij 4
ejj-eij 7
490
1
eij-eja 6
491
2
eja-ejb 5
ejj-ejb 6
492
1
ejb-ejc 6
493
2
ejc-ejd 5
ejj-ejd 6
494
1
ejd-eje 6
495
2
eje-ejf 6
ejj-ejf 7
496
1
ejf-ejg 6
497
2
ejg-ejh 5
ejj-ejh 8
498
1
ejh-eji 6
499
225
a-ejj 6
e-ejj 5
g-ejj 5
i-ejj 6
ba-ejj 5
bc-ejj 7
be-ejj 9
bi-ejj 6
ca-ejj 7
cc-ejj 7
ce-ejj 9
cg-ejj 7
ci-ejj 7
dc-ejj 6
de-ejj 5
dg-ejj 5
di-ejj 6
ec-ejj 6
ee-ejj 7
eg-ejj 6
fa-ejj 5
fc-ejj 8
fe-ejj 8
fg-ejj 6
fi-ejj 7
ga-ejj 6
gc-ejj 6
ge-ejj 7
gg-ejj 5
gi-ejj 7
ha-ejj 7
hc-ejj 7
he-ejj 8
hg-ejj 4
hi-ejj 5
ia-ejj 8
ic-ejj 4
ie-ejj 5
ig-ejj 7
ja-ejj 6
jc-ejj 8
je-ejj 7
jg-ejj 8
ji-ejj 7
baa-ejj 5
bac-ejj 7
bae-ejj 6
bag-ejj 9
bai-ejj 6
bba-ejj 6
bbc-ejj 7
bbe-ejj 7
bbg-ejj 7
bcc-ejj 8
bcg-ejj 6
bci-ejj 8
bda-ejj 4
bdc-ejj 4
bde-ejj 6
bdg-ejj 6
bdi-ejj 5
bea-ejj 7
bec-ejj 7
bee-ejj 3
beg-ejj 5
bei-ejj 5
bfa-ejj 6
bfc-ejj 5
bfe-ejj 6
bfg-ejj 6
bfi-ejj 5
bga-ejj 7
bgc-ejj 7
bge-ejj 7
bgg-ejj 7
bgi-ejj 6
bha-ejj 5
bhc-ejj 8
bhe-ejj 6
bhg-ejj 6
bhi-ejj 4
bia-ejj 8
bic-ejj 8
bie-ejj 7
big-ejj 7
bii-ejj 7
bja-ejj 6
bjc-ejj 6
bje-ejj 9
bjg-ejj 7
caa-ejj 6
cac-ejj 6
cae-ejj 6
cbc-ejj 3
cbe-ejj 7
cbg-ejj 9
cca-ejj 8
ccc-ejj 4
cce-ejj 8
ccg-ejj 6
cci-ejj 6
cda-ejj 3
cdc-ejj 3
cde-ejj 6
cdg-ejj 6
cdi-ejj 6
cea-ejj 7
cec-ejj 5
cee-ejj 3
ceg-ejj 6
cei-ejj 7
cfa-ejj 6
cfc-ejj 8
cfg-ejj 4
cfi-ejj 6
cgc-ejj 7
cge-ejj 4
cgg-ejj 5
cgi-ejj 5
cha-ejj 7
chc-ejj 6
che-ejj 7
chg-ejj 7
chi-ejj 9
cia-ejj 7
cic-ejj 7
cie-ejj 4
cig-ejj 5
cii-ejj 5
cja-ejj 5
cjc-ejj 9
cje-ejj 5
cjg-ejj 7
cji-ejj 6
daa-ejj 5
dac-ejj 6
dae-ejj 5
dag-ejj 6
dai-ejj 5
dba-ejj 7
dbg-ejj 10
dca-ejj 6
dcc-ejj 4
dce-ejj 6
dcg-ejj 6
dci-ejj 6
dda-ejj 8
ddc-ejj 5
dde-ejj 7
ddg-ejj 6
ddi-ejj 7
dea-ejj 7
dec-ejj 8
dee-ejj 6
deg-ejj 6
dei-ejj 5
dfc-ejj 3
dfg-ejj 4
dfi-ejj 8
dga-ejj 8
dge-ejj 6
dgi-ejj 4
dha-ejj 6
dhc-ejj 6
dhe-ejj 7
dhg-ejj 6
dhi-ejj 9
dia-ejj 6
dic-ejj 5
die-ejj 5
dig-ejj 3
dii-ejj 5
dja-ejj 7
djc-ejj 8
dje-ejj 5
djg-ejj 6
dji-ejj 10
eaa-ejj 5
eac-ejj 7
eae-ejj 3
eag-ejj 8
eai-ejj 7
eba-ejj 5
ebc-ejj 7
ebe-ejj 6
ebg-ejj 6
ebi-ejj 4
eca-ejj 6
ecc-ejj 4
ece-ejj 6
ecg-ejj 8
eci-ejj 7
eda-ejj 8
edc-ejj 9
ede-ejj 4
edg-ejj 7
edi-ejj 8
eea-ejj 8
eec-ejj 7
eee-ejj 5
eeg-ejj 6
eei-ejj 5
efa-ejj 10
efc-ejj 6
efe-ejj 6
efi-ejj 7
egc-ejj 8
ege-ejj 5
egg-ejj 7
egi-ejj 7
eha-ejj 9
ehc-ejj 7
ehe-ejj 8
ehg-ejj 4
ehi-ejj 6
eia-ejj 8
eic-ejj 9
eie-ejj 7
eig-ejj 6
eii-ejj 5
eja-ejj 5
ejc-ejj 5
eje-ejj 6
ejg-ejj 8
eji-ejj 6
